…
``` r
count (tdata, "school_Level")
```

    ## # A tibble: 1 x 2
    ##   `"school_Level"`      n
    ##   <chr>             <int>
    ## 1 school_Level     140438

``` r
tdata%>%arrange (desc(school_Level))
```

    ## # A tibble: 140,438 x 13
    ##       id administrative_reg~ school_Level authority Office_of_Education    sex  
    ##    <dbl> <chr>               <chr>        <chr>     <chr>                  <chr>
    ##  1    18 مكة المكرمة         رياض أطفال   حكومي     مكتب التربية والتعليم~ بنات 
    ##  2    23 عسير                رياض أطفال   حكومي     ابها                   بنات 
    ##  3    63 جازان               رياض أطفال   حكومي     مكتب التربية والتعليم~ بنات 
    ##  4    66 عسير                رياض أطفال   حكومي     بارق                   بنات 
    ##  5    79 نجران               رياض أطفال   حكومي     نجران                  بنات 
    ##  6    86 الجوف               رياض أطفال   حكومي     طبرجل                  بنات 
    ##  7    91 الشرقية             رياض أطفال   حكومي     إدارة التربية والتعلي~ بنات 
    ##  8    95 مكة المكرمة         رياض أطفال   حكومي     مكتب اضم               بنات 
    ##  9    96 جازان               رياض أطفال   حكومي     مكتب التربية والتعليم~ بنات 
    ## 10    97 حائل                رياض أطفال   أهلي      موقق                   بنات 
    ## # ... with 140,428 more rows, and 7 more variables: School_type <chr>,
    ## #   Type_of_education <chr>, school_system <chr>, Saudi_teacher <dbl>,
    ## #   Non_Saudi_teacher <dbl>, Teachers <dbl>, the_year <dbl>
…
